<svg width="130" height="116" viewBox="0 0 130 116" fill="none" xmlns="http://www.w3.org/2000/svg">
<path d="M14.368 5.50463V4.00463H12.868V5.50463H14.368ZM77.71 5.50463H79.21V4.00463H77.71V5.50463ZM102.429 59.3889H103.929V57.8889H102.429V59.3889ZM102.429 101.559H100.929V101.706L100.957 101.85L102.429 101.559ZM127.92 103.902L129.265 104.567L129.42 104.253V103.902H127.92ZM127.92 27.3707H129.42V26.7542L128.986 26.3159L127.92 27.3707ZM114.016 40.6466H112.516V40.8095L112.551 40.9686L114.016 40.6466ZM15.868 113.273V5.50463H12.868V113.273H15.868ZM14.368 7.00463H77.71V4.00463H14.368V7.00463ZM76.21 5.50463V59.3889H79.21V5.50463H76.21ZM76.21 59.3889V113.273H79.21V59.3889H76.21ZM77.71 60.8889H102.429V57.8889H77.71V60.8889ZM100.929 59.3889V101.559H103.929V59.3889H100.929ZM100.957 101.85C101.406 104.117 102.987 107.29 105.403 109.9C107.835 112.527 111.296 114.773 115.561 114.773V111.773C112.41 111.773 109.691 110.115 107.604 107.861C105.502 105.59 104.224 102.906 103.9 101.268L100.957 101.85ZM115.561 114.773C123.977 114.773 127.742 107.645 129.265 104.567L126.575 103.237C125.008 106.406 121.976 111.773 115.561 111.773V114.773ZM129.42 103.902V47.675H126.42V103.902H129.42ZM129.42 47.675V27.3707H126.42V47.675H129.42ZM128.986 26.3159L115.082 12.2591L112.949 14.3688L126.854 28.4256L128.986 26.3159ZM115.082 12.2591L103.495 0.545114L101.362 2.65484L112.949 14.3688L115.082 12.2591ZM112.516 13.314V40.6466H115.516V13.314H112.516ZM112.551 40.9686C112.865 42.3988 113.977 45.0675 116.448 47.0807C118.997 49.1577 122.83 50.4028 128.261 49.1357L127.579 46.2142C122.968 47.2899 120.107 46.1922 118.343 44.755C116.501 43.254 115.681 41.2371 115.481 40.3245L112.551 40.9686ZM0.832031 115.148H91.824V112.148H0.832031V115.148ZM30.2746 34.5366H62.8156V31.5366H30.2746V34.5366Z" fill="black"/>
</svg>
